…
**Obteniendo los Score O Puntuaciones**

``` r
as.tibble(scale_data)
```

    ## # A tibble: 82 x 10
    ##    Tasa_Casos Tasa_Muerte   t_med   t_max    t_min presion     ha      hr
    ##         <dbl>       <dbl>   <dbl>   <dbl>    <dbl>   <dbl>  <dbl>   <dbl>
    ##  1    -0.141      -0.0242 -1.91   -1.72   -1.79     -0.480 -0.298  0.0975
    ##  2    -0.295      -0.166  -0.403   0.0361 -0.962    -0.207 -2.65  -2.67  
    ##  3    -0.331      -0.197   0.617   0.492   0.964    -1.11   0.882  0.729 
    ##  4    -0.172      -0.199   0.121  -0.178   0.436     1.23   0.441  0.572 
    ##  5    -0.280      -0.180  -0.317   0.309  -0.560     0.456 -0.606 -0.387 
    ##  6     0.0639     -0.176  -0.645  -0.676  -0.592     1.26  -0.120  0.178 
    ##  7    -0.252      -0.199  -0.0952 -0.237   0.214     2.63   0.269  0.480 
    ##  8     0.411      -0.121  -0.387  -0.560   0.00973   0.977 -0.350 -0.0778
    ##  9    -0.331      -0.198   0.294   0.380   0.232    -0.680 -0.455 -0.451 
    ## 10    -0.0680     -0.199   0.322   0.0215  0.718     0.658  0.324  0.338 
    ## # ... with 72 more rows, and 2 more variables: vel <dbl>, p_rocio <dbl>
…
    ## [1] 82

``` r
table(output)
```

    ## output
    ##  1  2  3 
    ## 27 46  9

``` r
dplyr::bind_cols(scale(result), cluster = output)
```

    ## # A tibble: 82 x 5
    ##        Axis1   Axis2    Axis3  Axis4 cluster
    ##        <dbl>   <dbl>    <dbl>  <dbl>   <int>
    ##  1 -1.32     -0.402   1.03     1.33        1
    ##  2 -0.417    -2.80    0.465    0.421       1
    ##  3  0.806     0.837  -0.399    0.287       2
    ##  4  0.000538  0.645   0.498   -0.513       2
    ##  5 -0.152    -0.558   0.500   -0.326       1
    ##  6 -0.660     0.0774  0.841    0.122       1
    ##  7 -0.328     0.531   1.02    -1.22        2
    ##  8 -0.429    -0.123   0.291   -0.623       1
    ##  9  0.410    -0.267   0.00464  1.24        2
    ## 10  0.251     0.380   0.0611  -1.47        2
    ## # ... with 72 more rows
…
